{
	"urls": [{
		"url": "https://gdp.alicdn.com/imgextra/i4/749391658/TB2qHbecHZnBKNjSZFGXXbt3FXa_!!749391658.jpg"
	}, {"url": "https://img.alicdn.com/imgextra/i1/749391658/TB2ynN1lx9YBuNjy0FfXXXIsVXa_!!749391658.jpg"}, {"url":"https://img.alicdn.com/imgextra/i1/749391658/TB23iKwzmVmpuFjSZFFXXcZApXa_!!749391658.jpg"}]
}